// Jest Snapshot v1, https://goo.gl/fbAQLP

exports[`routes snapshot renders 1`] = `
<IntlProvider
  defaultFormats={Object {}}
  defaultLocale="en"
  formats={Object {}}
  locale="fr"
  messages={Object {}}
  onError={[Function]}
  textComponent={Symbol(react.fragment)}
>
  Object {
    "component": [Function],
    "name": "Main",
    "path": "/",
  }
  Object {
    "component": [Function],
    "name": "StepYourNeeds",
    "path": "/vos-besoins",
  }
</IntlProvider>
`;
