<svg width="33" height="21" viewBox="0 0 33 21" fill="none" xmlns="http://www.w3.org/2000/svg">
<path d="M4.06875 0.5L16.5 12.9042L28.9312 0.5L32.75 4.31874L16.5 20.5687L0.25 4.31874L4.06875 0.5Z" fill="#6C8AAF"/>
</svg>
