<svg width="45" height="45" viewBox="0 0 45 45" fill="none" xmlns="http://www.w3.org/2000/svg">
<g clip-path="url(#clip0)">
<path d="M21.1755 32.0791C20.9444 32.0791 20.7176 32.1731 20.5542 32.3366C20.3908 32.5001 20.2966 32.726 20.2966 32.958C20.2966 33.1892 20.3907 33.4159 20.5542 33.5793C20.7176 33.7428 20.9444 33.8369 21.1755 33.8369C21.4067 33.8369 21.6334 33.7429 21.7969 33.5793C21.9603 33.415 22.0544 33.1892 22.0544 32.958C22.0544 32.7259 21.9604 32.5001 21.7969 32.3366C21.6334 32.1731 21.4067 32.0791 21.1755 32.0791Z" fill="#A0CBFF"/>
<path d="M37.9485 29.4539C37.7165 29.4539 37.4897 29.5478 37.3262 29.7114C37.1628 29.8749 37.0696 30.1007 37.0696 30.3328C37.0696 30.5639 37.1628 30.7907 37.3262 30.9541C37.4897 31.1175 37.7165 31.2117 37.9485 31.2117C38.1796 31.2117 38.4055 31.1176 38.5699 30.9541C38.7334 30.7897 38.8274 30.5639 38.8274 30.3328C38.8274 30.1016 38.7334 29.8749 38.5699 29.7114C38.4055 29.5478 38.1796 29.4539 37.9485 29.4539Z" fill="#A0CBFF"/>
<path d="M11.9477 25.2246C11.7166 25.2246 11.4898 25.3186 11.3265 25.4821C11.163 25.6456 11.0688 25.8724 11.0688 26.1035C11.0688 26.3347 11.1629 26.5614 11.3265 26.7248C11.4898 26.8883 11.7166 26.9824 11.9477 26.9824C12.1789 26.9824 12.4057 26.8884 12.5691 26.7248C12.7326 26.5614 12.8267 26.3347 12.8267 26.1035C12.8267 25.8724 12.7327 25.6456 12.5691 25.4821C12.4056 25.3187 12.1789 25.2246 11.9477 25.2246Z" fill="#A0CBFF"/>
<path d="M44.9999 9.53938C44.9999 9.05396 44.6063 8.66048 44.121 8.66048H42.7676C42.5827 8.04322 42.3363 7.44785 42.0306 6.88025L42.9874 5.92339C43.3306 5.58018 43.3306 5.02365 42.9874 4.68044L40.3196 2.0127C39.9763 1.66948 39.4199 1.66948 39.0765 2.0127L38.1197 2.96947C37.5521 2.66379 36.9569 2.41734 36.3395 2.23242V0.878906C36.3395 0.393574 35.9459 0 35.4606 0H31.6877C31.2024 0 30.8088 0.393486 30.8088 0.878906V2.23567C30.1928 2.42095 29.5988 2.66757 29.0324 2.97316L28.0718 2.01261C27.7285 1.66939 27.1722 1.66939 26.8288 2.01261L24.161 4.68044C23.9518 4.88971 23.8708 5.17808 23.9166 5.44913H3.51853C1.57843 5.44922 0 7.02765 0 8.96783V33.2198C0 35.1599 1.57843 36.7383 3.51853 36.7383H17.4839V39.7266H15.3777C13.6313 39.7266 12.2105 41.1474 12.2105 42.8938V44.1211C12.2105 44.6064 12.604 45 13.0894 45H29.2613C29.7466 45 30.1402 44.6064 30.1402 44.1211V42.8938C30.1402 41.1474 28.7194 39.7266 26.973 39.7266H24.8667V36.7383H38.8241C40.7643 36.7383 42.3427 35.1599 42.3427 33.2198V18.8157L42.9874 18.171C43.1522 18.0062 43.2448 17.7826 43.2448 17.5496C43.2448 17.3165 43.1522 17.0929 42.9874 16.9281L42.0268 15.9676C42.3325 15.4012 42.5791 14.8072 42.7644 14.1912H44.1212C44.3543 14.1912 44.5779 14.0985 44.7427 13.9337C44.9075 13.7689 45.0001 13.5454 45.0001 13.3123L44.9999 9.53938ZM28.3823 42.8938V43.2422H13.9683V42.8938C13.9683 42.1166 14.6005 41.4844 15.3777 41.4844H26.973C27.7501 41.4844 28.3823 42.1166 28.3823 42.8938ZM23.1089 39.7266H19.2417V36.7383H23.1089V39.7266ZM40.5849 33.2198C40.5849 34.1906 39.795 34.9805 38.8241 34.9805H3.51853C2.54769 34.9805 1.75781 34.1906 1.75781 33.2198V31.2115H34.433C34.9183 31.2115 35.3119 30.8179 35.3119 30.3326C35.3119 29.8472 34.9183 29.4536 34.433 29.4536H1.75781V26.9824H8.46677C8.9521 26.9824 9.34567 26.5888 9.34567 26.1035C9.34567 25.6182 8.9521 25.2246 8.46677 25.2246H1.75781V8.96783C1.75781 7.9969 2.54769 7.20703 3.51853 7.20703H24.9617C24.7324 7.67522 24.5415 8.16056 24.3918 8.66048H23.0274C22.7943 8.66048 22.5708 8.75312 22.406 8.91791C22.2412 9.08271 22.1484 9.3063 22.1484 9.53938L22.1485 13.3122C22.1485 13.7976 22.5421 14.1911 23.0274 14.1911H24.395C24.5796 14.8045 24.825 15.3961 25.1288 15.9604L24.1611 16.9282C23.8179 17.2714 23.8179 17.8279 24.1611 18.1711L26.829 20.8389C27.1723 21.1821 27.7286 21.1821 28.072 20.8389L29.0397 19.8712C29.604 20.1751 30.1957 20.4205 30.809 20.605L30.8089 21.9727C30.8089 22.458 31.2025 22.8516 31.6878 22.8516L35.4607 22.8515C35.946 22.8515 36.3396 22.458 36.3396 21.9726V20.6082C36.9542 20.4241 37.5471 20.1789 38.1127 19.875L39.0766 20.8389C39.2415 21.0037 39.465 21.0963 39.6981 21.0963C39.9312 21.0963 40.1547 21.0037 40.3196 20.8389L40.5849 20.5735V33.2198ZM43.2422 12.4333H42.0858C41.6737 12.4333 41.3169 12.7197 41.2276 13.1222C41.0296 14.0163 40.6789 14.8614 40.1849 15.6339C39.9624 15.981 40.0109 16.4376 40.3034 16.7301L41.123 17.5496L39.6981 18.9744L38.876 18.1524C38.6084 17.885 38.1996 17.8185 37.8612 17.9877C37.8339 18.0012 37.8076 18.0163 37.782 18.0325C37.0096 18.5246 36.1651 18.8737 35.2717 19.0704C34.8688 19.1591 34.5817 19.5161 34.5817 19.9288V21.0938H32.5666V19.9265C32.5666 19.5143 32.2802 19.1574 31.8778 19.0683C30.9858 18.8708 30.1424 18.521 29.3711 18.0287C29.23 17.9386 29.0658 17.8907 28.8983 17.8907C28.6652 17.8907 28.4414 17.9834 28.2765 18.1482L27.4504 18.9744L26.0256 17.5496L26.8517 16.7234C27.1442 16.4309 27.1927 15.9744 26.9703 15.6273C26.4785 14.8564 26.1291 14.0136 25.9317 13.1222C25.8426 12.7197 25.4857 12.4333 25.0735 12.4333H23.9062L23.9063 10.4183H25.0712C25.4837 10.4183 25.8408 10.1312 25.9296 9.72826C26.1259 8.83591 26.4747 7.99216 26.9662 7.22004C27.1885 6.87305 27.1401 6.41646 26.8476 6.12404L26.0255 5.30191L27.4504 3.87712L28.2698 4.69661C28.5712 4.9979 29.037 5.03455 29.3784 4.80718C30.1474 4.31745 30.9882 3.96932 31.8778 3.77244C32.2801 3.68332 32.5666 3.32648 32.5666 2.91437L32.5667 1.75781H34.5818V2.91182C34.5818 3.32438 34.8688 3.68147 35.2718 3.77016C36.1675 3.96738 37.0142 4.3178 37.788 4.81184C37.8139 4.82836 37.8406 4.84339 37.8679 4.8571C38.2061 5.0262 38.6153 4.95993 38.8828 4.69239L39.6981 3.87703L41.1229 5.30191L40.3076 6.11719C40.2667 6.15814 40.2299 6.20297 40.1978 6.25113C40.0039 6.54205 40.001 6.91998 40.1892 7.21345C40.6827 7.98697 41.0329 8.83301 41.2298 9.72809C41.3184 10.1311 41.6754 10.4181 42.0882 10.4181H43.2423V12.4333H43.2422Z" fill="#385880"/>
<path d="M33.5742 5.97656C30.5695 5.97656 28.125 8.42106 28.125 11.4258C28.125 14.4305 30.5695 16.875 33.5742 16.875C36.5789 16.875 39.0234 14.4305 39.0234 11.4258C39.0234 8.42106 36.5789 5.97656 33.5742 5.97656ZM33.5742 15.1172C31.5388 15.1172 29.8828 13.4612 29.8828 11.4258C29.8828 9.39032 31.5388 7.73438 33.5742 7.73438C35.6097 7.73438 37.2656 9.39032 37.2656 11.4258C37.2656 13.4612 35.6097 15.1172 33.5742 15.1172Z" fill="#A0CBFF"/>
<path d="M14.385 16.4548C14.1529 16.4548 13.9271 16.5489 13.7636 16.7124C13.5993 16.8758 13.5061 17.1026 13.5061 17.3346C13.5061 17.5658 13.5993 17.7925 13.7636 17.956C13.9271 18.1195 14.153 18.2126 14.385 18.2126C14.6162 18.2126 14.8429 18.1195 15.0064 17.956C15.1698 17.7925 15.2639 17.5658 15.2639 17.3346C15.2639 17.1026 15.1699 16.8758 15.0064 16.7124C14.8429 16.5489 14.6162 16.4548 14.385 16.4548Z" fill="#A0CBFF"/>
<path d="M21.2448 15.8047C21.3052 15.5795 21.2736 15.3396 21.157 15.1378L19.673 12.5675C19.4303 12.1472 18.8928 12.003 18.4724 12.2458L17.6271 12.7339C17.3494 12.5375 17.0557 12.3676 16.7476 12.2253V11.25C16.7476 10.7646 16.3541 10.3711 15.8687 10.3711H12.9008C12.4154 10.3711 12.0219 10.7646 12.0219 11.25V12.2253C11.7138 12.3677 11.4201 12.5375 11.1424 12.7339L10.2971 12.2458C10.0952 12.1293 9.85526 12.0978 9.63017 12.158C9.40491 12.2184 9.21304 12.3656 9.0965 12.5675L7.61256 15.1378C7.3698 15.5581 7.51386 16.0956 7.93424 16.3383L8.77992 16.8267C8.7648 16.9952 8.75716 17.1648 8.75716 17.3341C8.75716 17.5035 8.7648 17.673 8.77992 17.8416L7.93424 18.3299C7.51386 18.5726 7.3698 19.1101 7.61256 19.5305L9.0965 22.1008C9.21304 22.3027 9.405 22.45 9.63017 22.5103C9.85526 22.5706 10.0952 22.5391 10.2971 22.4225L11.1424 21.9344C11.4201 22.1308 11.7138 22.3007 12.0219 22.443V23.4183C12.0219 23.9036 12.4154 24.2972 12.9008 24.2972H15.8687C16.3541 24.2972 16.7476 23.9036 16.7476 23.4183V22.443C17.0557 22.3006 17.3494 22.1308 17.6271 21.9344L18.4724 22.4225C18.8929 22.6651 19.4302 22.5212 19.673 22.1008L21.157 19.5305C21.2736 19.3286 21.3052 19.0888 21.2448 18.8636C21.1844 18.6384 21.0372 18.4465 20.8353 18.3299L19.9896 17.8418C20.0048 17.6731 20.0124 17.5036 20.0124 17.3343C20.0124 17.165 20.0048 16.9955 19.9896 16.8267L20.8353 16.3384C21.0371 16.2218 21.1844 16.0298 21.2448 15.8047ZM18.1734 16.5422C18.2272 16.8014 18.2545 17.0679 18.2545 17.3342C18.2545 17.6005 18.2272 17.867 18.1734 18.1263C18.0963 18.4976 18.2661 18.8765 18.5945 19.0661L19.1952 19.4129L18.5901 20.4609L17.9884 20.1136C17.6598 19.9238 17.2462 19.9665 16.9631 20.2197C16.5623 20.5781 16.1017 20.8444 15.5942 21.0112C15.2335 21.1298 14.9897 21.4665 14.9897 21.8462V22.5396H13.7796V21.8462C13.7796 21.4665 13.5359 21.1298 13.1752 21.0112C12.6676 20.8444 12.207 20.578 11.8063 20.2197C11.5232 19.9665 11.1097 19.9238 10.7809 20.1136L10.1792 20.4609L9.57419 19.4129L10.1748 19.0661C10.5032 18.8765 10.673 18.4976 10.5959 18.1263C10.5422 17.8673 10.5149 17.6008 10.5149 17.3342C10.5149 17.0677 10.5422 16.8013 10.5959 16.5422C10.673 16.1708 10.5033 15.792 10.1748 15.6023L9.57419 15.2555L10.1792 14.2076L10.7809 14.555C11.1095 14.7448 11.5232 14.7021 11.8063 14.4489C12.207 14.0904 12.6676 13.8241 13.1752 13.6573C13.5359 13.5388 13.7796 13.2021 13.7796 12.8224V12.1289H14.9897V12.8224C14.9897 13.2021 15.2335 13.5388 15.5942 13.6573C16.1017 13.8241 16.5624 14.0905 16.9631 14.4489C17.246 14.7019 17.6595 14.7447 17.9884 14.555L18.5901 14.2075L19.1952 15.2555L18.5945 15.6023C18.2661 15.792 18.0963 16.1709 18.1734 16.5422Z" fill="#A0CBFF"/>
</g>
<defs>
<clipPath id="clip0">
<rect width="45" height="45" fill="white"/>
</clipPath>
</defs>
</svg>
