<svg width="110" height="111" viewBox="0 0 110 111" fill="none" xmlns="http://www.w3.org/2000/svg">
<path d="M22.4362 20.7581C31.5827 12.0609 43.5677 7.4413 56.1878 7.75883C66.3993 8.0144 76.0376 11.4801 83.9528 17.637C84.0496 16.971 84.3477 16.363 84.8124 15.8984C85.4436 15.2749 86.373 14.9419 87.3062 15.0194C88.2124 15.0929 89.0372 15.5421 89.5716 16.2546L95.6164 22.6168C96.0075 23.1318 96.5535 23.2363 96.8439 23.2518C97.3512 23.2789 97.8352 23.1008 98.1489 22.7717C98.4354 22.4696 98.5903 22.0127 98.5632 21.5558C98.5594 21.4938 98.5439 21.4357 98.5323 21.3738C97.6068 20.1772 96.6232 19.0155 95.5854 17.881L94.8341 17.091L94.8419 17.0833C73.9078 -4.91516 39.1029 -5.78255 17.0962 15.1471C-4.89119 36.0613 -5.78571 70.8228 15.0825 92.8367L17.3363 90.6953L14.4204 87.6324C13.7349 87.0631 13.3283 86.219 13.2974 85.309C13.2664 84.3719 13.6459 83.4503 14.3003 82.8617C14.827 82.3816 15.524 82.1105 16.2597 82.0834C10.486 73.8625 7.50042 64.0502 7.75599 53.8196C8.0774 41.196 13.2896 29.4552 22.4362 20.7581Z" fill="#385880"/>
<path d="M99.17 23.9417C98.5505 24.5303 97.6598 24.8517 96.7575 24.8014C95.8282 24.751 94.9724 24.3096 94.4109 23.5932L88.3506 17.2117C87.9827 16.7044 87.46 16.5883 87.185 16.565C86.6971 16.5263 86.2363 16.6773 85.9072 16.9987C85.609 17.2969 85.4425 17.7538 85.4696 18.2224C85.4967 18.687 85.7019 19.0936 86.0543 19.3763C87.1579 20.3405 88.2228 21.3589 89.2451 22.4354C97.9425 31.5817 102.562 43.5665 102.245 56.1862C101.927 68.806 96.715 80.5467 87.5684 89.2439C78.4218 97.941 66.4369 102.561 53.8168 102.243C41.1967 101.926 29.4557 96.7135 20.7583 87.5672C20.739 87.544 20.7157 87.5207 20.6964 87.5014L18.4581 89.6311L21.5057 92.8335C22.195 93.4337 22.59 94.305 22.5938 95.2382C22.5977 96.1404 22.2337 97.0156 21.6141 97.6041C21.5793 97.639 21.5444 97.67 21.5057 97.701C21.3082 97.8713 21.0836 98.0107 20.8513 98.123C41.9867 114.902 72.7914 113.988 92.9045 94.8587C113.014 75.7335 115.477 45.0302 99.7935 23.0821C99.658 23.3609 99.4837 23.6203 99.2707 23.8449C99.2359 23.8759 99.2049 23.9107 99.17 23.9417Z" fill="#385880"/>
<path d="M15.0046 92.7558C16.3909 94.2117 17.8314 95.5825 19.3261 96.8642C19.7676 96.9029 20.2013 96.779 20.4994 96.5235C20.8441 96.2292 21.0416 95.7451 21.0338 95.2301C21.0261 94.9358 20.9409 94.3744 20.4297 93.9407L20.3639 93.8787L17.1924 90.5447L14.9387 92.6861C14.962 92.7093 14.9852 92.7325 15.0046 92.7558Z" fill="#385880"/>
<path d="M19.3102 85.9599L17.7807 84.349C17.5018 83.9657 17.0836 83.7178 16.6073 83.652C16.1272 83.5901 15.6547 83.7217 15.3411 84.0044C15.0158 84.3026 14.8377 84.775 14.8648 85.2784C14.8803 85.5649 14.9848 86.1109 15.496 86.5252L15.5773 86.5988L18.6791 89.8593L20.9173 87.7295C20.3674 87.1525 19.8291 86.5601 19.3102 85.9599Z" fill="#2739C6"/>
<path d="M95.5845 17.8804C95.3444 17.6171 95.1043 17.3538 94.8565 17.0943C94.8526 17.0905 94.8487 17.0866 94.841 17.0789L94.8333 17.0866L95.5845 17.8804Z" fill="#F9D523"/>
<path d="M62.3967 67.9911C62.0909 68.3211 61.7234 68.4894 61.297 68.4894H61.0824C60.6531 68.4894 60.2885 68.3178 59.9827 67.9746C59.6769 67.6314 59.524 67.2189 59.524 66.7405V57.27C59.524 56.7222 59.4476 56.1942 59.2947 55.6926C59.1418 55.1911 58.8918 54.7489 58.5449 54.3727C58.1979 53.9965 57.7304 53.6995 57.1394 53.4818C56.5484 53.264 55.8133 53.1551 54.937 53.1551C54.3666 53.1551 53.805 53.2937 53.2552 53.5675C52.7053 53.8414 52.2143 54.1978 51.7879 54.6301C51.3586 55.0657 51.0117 55.5441 50.747 56.0721C50.4824 56.6001 50.3501 57.1149 50.3501 57.6164V66.7438C50.3501 67.2255 50.1913 67.6347 49.8767 67.9779C49.5591 68.3211 49.1975 68.4927 48.7917 68.4927H48.5476C48.1184 68.4927 47.7538 68.3211 47.448 67.9779C47.1422 67.6347 46.9893 67.2222 46.9893 66.7438V42.1732C46.9893 41.6717 47.1422 41.2526 47.448 40.9193C47.7538 40.5893 48.1213 40.421 48.5476 40.421H48.73C49.1592 40.421 49.5238 40.5926 49.8296 40.9358C50.1354 41.279 50.2883 41.6915 50.2883 42.1699V52.1915C50.8794 51.3666 51.5586 50.7033 52.3231 50.2017C53.0876 49.7001 53.9697 49.4461 54.9694 49.4461C56.3955 49.4461 57.6098 49.6474 58.6096 50.0466C59.6093 50.4459 60.4237 51.0036 61.0559 51.7097C61.6881 52.4192 62.1468 53.2475 62.432 54.1978C62.7172 55.1482 62.8613 56.1711 62.8613 57.27V66.7405C62.8554 67.242 62.7025 67.6578 62.3967 67.9911Z" fill="#385880"/>
<path d="M72.7621 44.19C72.7621 44.8533 72.5592 45.4076 72.1505 45.8531C71.7418 46.2986 71.2625 46.523 70.7126 46.523C70.1216 46.523 69.6306 46.2887 69.2454 45.8201C68.8573 45.3515 68.6632 44.8071 68.6632 44.19C68.6632 43.5729 68.8573 43.0351 69.2454 42.5764C69.6335 42.1177 70.1216 41.89 70.7126 41.89C71.3036 41.89 71.7918 42.1078 72.1799 42.5434C72.5709 42.979 72.7621 43.5267 72.7621 44.19ZM71.9388 67.9554C71.633 68.3085 71.2654 68.4866 70.8391 68.4866H70.595C70.1657 68.4866 69.8011 68.3151 69.4953 67.9719C69.1895 67.6287 69.0366 67.2162 69.0366 66.7377V51.4331C69.0366 50.9315 69.1895 50.5125 69.4953 50.1792C69.8011 49.8492 70.1687 49.6809 70.595 49.6809H70.8391C71.2684 49.6809 71.633 49.8525 71.9388 50.1957C72.2446 50.5389 72.3975 50.9513 72.3975 51.4298V66.7344C72.3975 67.1964 72.2446 67.6023 71.9388 67.9554Z" fill="#385880"/>
<path d="M94.9017 62.6545C94.9017 63.4794 94.7546 64.2549 94.4577 64.9875C94.1607 65.72 93.699 66.3602 93.0669 66.908C92.4347 67.4557 91.629 67.8913 90.6499 68.2114C89.6708 68.5315 88.4976 68.6932 87.1332 68.6932C85.9924 68.6932 84.8486 68.6074 83.7077 68.4358C82.5669 68.2642 81.5377 68.0134 80.6203 67.6801C79.7029 67.3501 78.959 66.9377 78.3886 66.446C77.8182 65.9543 77.533 65.3999 77.533 64.7829C77.533 64.3242 77.6153 63.9645 77.777 63.7005C77.9387 63.4365 78.1328 63.2484 78.3592 63.133C78.5827 62.9944 78.8591 62.9152 79.1854 62.8921C79.4501 62.8921 79.7059 62.9614 79.9499 63.0966C80.6439 63.5322 81.3348 63.882 82.0288 64.1427C82.7227 64.4067 83.3902 64.6113 84.0312 64.7598C84.6722 64.9083 85.2602 65.0073 85.7895 65.0502C86.3187 65.0964 86.7686 65.1194 87.1362 65.1194C87.5449 65.1194 88.0065 65.0799 88.527 65.0007C89.0474 64.9215 89.5355 64.7763 89.9942 64.5717C90.4529 64.3671 90.8351 64.0965 91.1409 63.7665C91.4467 63.4365 91.5996 63.0076 91.5996 62.4796C91.5996 62.1133 91.5173 61.7998 91.3556 61.5358C91.1909 61.2718 90.988 61.0541 90.744 60.8825C90.4999 60.7109 90.2294 60.5855 89.9325 60.5063C89.6355 60.4271 89.3561 60.3875 89.0915 60.3875L84.1694 60.2159C83.1696 60.1928 82.2934 60.0278 81.5407 59.7176C80.785 59.4074 80.1587 59.0082 79.6588 58.5165C79.159 58.0248 78.7885 57.4572 78.5415 56.8171C78.2975 56.1769 78.174 55.4905 78.174 54.758C78.174 54.0716 78.2975 53.3918 78.5415 52.7154C78.7855 52.0422 79.209 51.435 79.8117 50.8972C80.4116 50.3593 81.2084 49.9237 82.1964 49.5937C83.1843 49.2638 84.4222 49.0955 85.913 49.0955C86.7892 49.0955 87.6713 49.1813 88.5593 49.3528C89.4473 49.5244 90.2412 49.7653 90.9439 50.0722C91.6467 50.3824 92.2171 50.7421 92.6552 51.1546C93.0933 51.567 93.3139 52.0257 93.3139 52.5273C93.3139 53.0751 93.1404 53.504 92.7934 53.8142C92.4465 54.1244 92.0701 54.2762 91.6614 54.2762C91.4791 54.2762 91.3085 54.2366 91.1556 54.1574C91.0027 54.0782 90.844 53.9924 90.6822 53.9C90.0501 53.5799 89.3267 53.2829 88.5123 53.0091C87.6978 52.7352 86.6569 52.5966 85.3925 52.5966C84.9632 52.5966 84.5163 52.6362 84.0459 52.7154C83.5754 52.7946 83.1549 52.9266 82.7756 53.1114C82.3992 53.2961 82.0876 53.5304 81.8435 53.8142C81.5995 54.1013 81.476 54.4478 81.476 54.8603C81.476 55.2265 81.5789 55.5301 81.7818 55.771C81.9847 56.0119 82.2346 56.2132 82.5316 56.3716C82.8256 56.5333 83.1432 56.6455 83.4784 56.7148C83.8136 56.7841 84.1252 56.8171 84.4105 56.8171L88.6916 56.9887C90.5882 57.058 92.0966 57.5331 93.2168 58.4142C94.34 59.2952 94.9017 60.7076 94.9017 62.6545Z" fill="#385880"/>
<path d="M33.2885 64.4835C33.4973 64.4241 33.6796 64.2459 33.7825 64.0116C33.8795 63.7872 33.8854 63.5463 33.8002 63.3285L33.7825 63.2757L32.1594 56.3263C32.0065 55.8775 32.0359 55.399 32.2418 54.9701C32.4417 54.5543 32.7828 54.2507 33.1562 54.1616C33.3032 54.1253 33.4591 54.1253 33.612 54.155L32.918 51.1918C32.8151 50.7364 32.6093 50.3866 32.2947 50.1358C31.9801 49.885 31.6302 49.7596 31.245 49.7596H29.666C29.2808 49.7596 28.9309 49.885 28.6192 50.1358C28.3046 50.3866 28.0988 50.7265 27.9959 51.1588L25.0173 63.5364H24.9556L21.6741 51.1258C21.5712 50.6935 21.3654 50.3602 21.0508 50.1193C20.7362 49.8817 20.398 49.7596 20.0334 49.7596H19.76C19.3954 49.7596 19.0778 49.9081 18.8043 50.2018C18.5309 50.4988 18.3956 50.8618 18.3956 51.2941C18.3956 51.4096 18.4162 51.5547 18.4574 51.7362L22.5592 67.0805C22.6591 67.4665 22.862 67.7899 23.1678 68.0506C23.4707 68.3113 23.8147 68.4433 24.1999 68.4433H25.9024C26.3081 68.4433 26.661 68.308 26.9668 68.0341C27.2696 67.7602 27.4725 67.4104 27.5754 66.9782L30.3717 54.6368H30.4334L32.624 64.3119C32.6358 64.3218 32.6446 64.335 32.6564 64.3449C32.8445 64.4901 33.0798 64.5429 33.2885 64.4835Z" fill="#385880"/>
<path d="M42.1085 50.1659C41.8144 49.892 41.4969 49.7567 41.1529 49.7567H40.8794C40.5148 49.7567 40.1767 49.8821 39.862 50.1329C39.5474 50.3837 39.3416 50.7005 39.2387 51.0865L35.8661 63.5302H35.8043L33.8078 54.9968C33.6402 54.8781 33.4491 54.8253 33.2874 54.8649C33.0992 54.9111 32.914 55.0793 32.8052 55.307C32.7376 55.4489 32.6405 55.736 32.7611 56.0792L32.7728 56.1221L34.393 63.0649C34.5459 63.4708 34.5312 63.9163 34.3577 64.3255C34.1754 64.7479 33.8343 65.0712 33.4491 65.1834C33.3403 65.2164 33.2286 65.2296 33.1139 65.2296C33.0139 65.2296 32.914 65.2131 32.8169 65.19L33.2227 66.9785C33.3227 67.4108 33.5256 67.7639 33.8314 68.0345C34.1342 68.3084 34.49 68.4437 34.8958 68.4437H36.6894C37.054 68.4437 37.3921 68.3117 37.7068 68.051C38.0214 67.7903 38.2272 67.4669 38.3301 67.0808L42.4613 51.7366C42.5231 51.6013 42.5525 51.4429 42.5525 51.2581C42.5495 50.8028 42.4025 50.4398 42.1085 50.1659Z" fill="#385880"/>
</svg>
