<?xml version="1.0" encoding="utf-8"?>
<!-- Generator: Adobe Illustrator 23.0.4, SVG Export Plug-In . SVG Version: 6.00 Build 0)  -->
<svg version="1.1" id="Calque_1" xmlns="http://www.w3.org/2000/svg" xmlns:xlink="http://www.w3.org/1999/xlink" x="50px" y="50px"
	 viewBox="130 230 320 120"  xml:space="preserve">
<style type="text/css">
	.st0{display:none;fill:#385880;}
	.st1{fill:#385880;}
</style>
<rect class="st0"/>
<g>
	<g>
		<path class="st1" d="M303.05,323.95c-1.04,1-2.29,1.51-3.74,1.51h-0.73c-1.46,0-2.7-0.52-3.74-1.56
			c-1.04-1.04-1.56-2.29-1.56-3.74v-28.7c0-1.66-0.26-3.26-0.78-4.78s-1.37-2.86-2.55-4s-2.77-2.04-4.78-2.7s-4.51-0.99-7.49-0.99
			c-1.94,0-3.85,0.42-5.72,1.25s-3.54,1.91-4.99,3.22c-1.46,1.32-2.64,2.77-3.54,4.37s-1.35,3.16-1.35,4.68v27.66
			c0,1.46-0.54,2.7-1.61,3.74c-1.08,1.04-2.31,1.56-3.69,1.56h-0.83c-1.46,0-2.7-0.52-3.74-1.56c-1.04-1.04-1.56-2.29-1.56-3.74
			v-74.46c0-1.52,0.52-2.79,1.56-3.8c1.04-1,2.29-1.51,3.74-1.51h0.62c1.46,0,2.7,0.52,3.74,1.56s1.56,2.29,1.56,3.74v30.37
			c2.01-2.5,4.32-4.51,6.92-6.03s5.6-2.29,9-2.29c4.85,0,8.98,0.61,12.38,1.82c3.4,1.21,6.17,2.9,8.32,5.04
			c2.15,2.15,3.71,4.66,4.68,7.54s1.46,5.98,1.46,9.31v28.7C304.61,321.68,304.09,322.94,303.05,323.95z"/>
		<path class="st1" d="M338.3,251.82c0,2.01-0.69,3.69-2.08,5.04c-1.39,1.35-3.02,2.03-4.89,2.03c-2.01,0-3.68-0.71-4.99-2.13
			c-1.32-1.42-1.98-3.07-1.98-4.94s0.66-3.5,1.98-4.89s2.98-2.08,4.99-2.08c2.01,0,3.67,0.66,4.99,1.98
			C337.65,248.15,338.3,249.81,338.3,251.82z M335.5,323.84c-1.04,1.07-2.29,1.61-3.74,1.61h-0.83c-1.46,0-2.7-0.52-3.74-1.56
			c-1.04-1.04-1.56-2.29-1.56-3.74v-46.38c0-1.52,0.52-2.79,1.56-3.8c1.04-1,2.29-1.51,3.74-1.51h0.83c1.46,0,2.7,0.52,3.74,1.56
			s1.56,2.29,1.56,3.74v46.38C337.06,321.54,336.54,322.77,335.5,323.84z"/>
		<path class="st1" d="M413.6,307.78c0,2.5-0.5,4.85-1.51,7.07s-2.58,4.16-4.73,5.82c-2.15,1.66-4.89,2.98-8.22,3.95
			s-7.32,1.46-11.96,1.46c-3.88,0-7.77-0.26-11.65-0.78s-7.38-1.28-10.5-2.29c-3.12-1-5.65-2.25-7.59-3.74s-2.91-3.17-2.91-5.04
			c0-1.39,0.28-2.48,0.83-3.28s1.21-1.37,1.98-1.72c0.76-0.42,1.7-0.66,2.81-0.73c0.9,0,1.77,0.21,2.6,0.62
			c2.36,1.32,4.71,2.38,7.07,3.17c2.36,0.8,4.63,1.42,6.81,1.87c2.18,0.45,4.18,0.75,5.98,0.88c1.8,0.14,3.33,0.21,4.58,0.21
			c1.39,0,2.96-0.12,4.73-0.36c1.77-0.24,3.43-0.68,4.99-1.3s2.86-1.44,3.9-2.44s1.56-2.3,1.56-3.9c0-1.11-0.28-2.06-0.83-2.86
			c-0.56-0.8-1.25-1.46-2.08-1.98c-0.83-0.52-1.75-0.9-2.76-1.14c-1.01-0.24-1.96-0.36-2.86-0.36l-16.74-0.52
			c-3.4-0.07-6.38-0.57-8.94-1.51c-2.57-0.94-4.7-2.15-6.4-3.64c-1.7-1.49-2.96-3.21-3.8-5.15c-0.83-1.94-1.25-4.02-1.25-6.24
			c0-2.08,0.42-4.14,1.25-6.19c0.83-2.04,2.27-3.88,4.32-5.51c2.04-1.63,4.75-2.95,8.11-3.95s7.57-1.51,12.64-1.51
			c2.98,0,5.98,0.26,9,0.78s5.72,1.25,8.11,2.18c2.39,0.94,4.33,2.03,5.82,3.28c1.49,1.25,2.24,2.64,2.24,4.16
			c0,1.66-0.59,2.96-1.77,3.9s-2.46,1.4-3.85,1.4c-0.62,0-1.2-0.12-1.72-0.36s-1.06-0.5-1.61-0.78c-2.15-0.97-4.61-1.87-7.38-2.7
			c-2.77-0.83-6.31-1.25-10.61-1.25c-1.46,0-2.98,0.12-4.58,0.36c-1.6,0.24-3.03,0.64-4.32,1.2c-1.28,0.56-2.34,1.27-3.17,2.13
			c-0.83,0.87-1.25,1.92-1.25,3.17c0,1.11,0.35,2.03,1.04,2.76s1.54,1.34,2.55,1.82c1,0.49,2.08,0.83,3.22,1.04
			c1.14,0.21,2.2,0.31,3.17,0.31l14.56,0.52c6.45,0.21,11.58,1.65,15.39,4.32C411.69,297.6,413.6,301.88,413.6,307.78z"/>
	</g>
	<path class="st1" d="M204.06,313.32c0.71-0.18,1.33-0.72,1.68-1.43c0.33-0.68,0.35-1.41,0.06-2.07l-0.06-0.16l-5.52-21.06
		c-0.52-1.36-0.42-2.81,0.28-4.11c0.68-1.26,1.84-2.18,3.11-2.45c0.5-0.11,1.03-0.11,1.55-0.02l-2.36-8.98
		c-0.35-1.38-1.05-2.44-2.12-3.2c-1.07-0.76-2.26-1.14-3.57-1.14h-5.37c-1.31,0-2.5,0.38-3.56,1.14c-1.07,0.76-1.77,1.79-2.12,3.1
		l-10.13,37.51h-0.21l-11.16-37.61c-0.35-1.31-1.05-2.32-2.12-3.05c-1.07-0.72-2.22-1.09-3.46-1.09h-0.93
		c-1.24,0-2.32,0.45-3.25,1.34c-0.93,0.9-1.39,2-1.39,3.31c0,0.35,0.07,0.79,0.21,1.34l13.95,46.5c0.34,1.17,1.03,2.15,2.07,2.94
		c1.03,0.79,2.2,1.19,3.51,1.19h5.79c1.38,0,2.58-0.41,3.62-1.24c1.03-0.83,1.72-1.89,2.07-3.2l9.51-37.4h0.21l7.45,29.32
		c0.04,0.03,0.07,0.07,0.11,0.1C202.55,313.34,203.35,313.5,204.06,313.32z"/>
	<path class="st1" d="M234.06,269.93c-1-0.83-2.08-1.24-3.25-1.24h-0.93c-1.24,0-2.39,0.38-3.46,1.14s-1.77,1.72-2.12,2.89
		l-11.47,37.71h-0.21l-6.79-25.86c-0.57-0.36-1.22-0.52-1.77-0.4c-0.64,0.14-1.27,0.65-1.64,1.34c-0.23,0.43-0.56,1.3-0.15,2.34
		l0.04,0.13l5.51,21.04c0.52,1.23,0.47,2.58-0.12,3.82c-0.62,1.28-1.78,2.26-3.09,2.6c-0.37,0.1-0.75,0.14-1.14,0.14
		c-0.34,0-0.68-0.05-1.01-0.12l1.38,5.42c0.34,1.31,1.03,2.38,2.07,3.2c1.03,0.83,2.24,1.24,3.62,1.24h6.1
		c1.24,0,2.39-0.4,3.46-1.19s1.77-1.77,2.12-2.94l14.05-46.5c0.21-0.41,0.31-0.89,0.31-1.45
		C235.56,271.86,235.06,270.76,234.06,269.93z"/>
</g>
</svg>
